{
  "results": [
    {
      "popularity": 45.637,
      "vote_count": 74,
      "video": false,
      "poster_path": "/8NF0YG30eCDQJ5bRTNauF48C9Bu.jpg",
      "id": 587693,
      "adult": false,
      "backdrop_path": "/uuCj46exjP6UOo976MAWACWFv1X.jpg",
      "original_language": "en",
      "original_title": "A Christmas Prince: The Royal Baby",
      "genre_ids": [
        10749
      ],
      "title": "A Christmas Prince: The Royal Baby",
      "vote_average": 6.5,
      "overview": "Christmas brings the ultimate gift to Aldovia: a royal baby. But first, Queen Amber must help her family and kingdom by finding a missing peace treaty.",
      "release_date": "2019-12-05"
    },
    {
      "popularity": 45.952,
      "vote_count": 300,
      "video": false,
      "poster_path": "/g4z7mDmJmx23vsVg6XNWcnXb6gc.jpg",
      "id": 480105,
      "adult": false,
      "backdrop_path": "/3uG3aOhEzFCjcQulsJQiAzLSrw8.jpg",
      "original_language": "en",
      "original_title": "47 Meters Down: Uncaged",
      "genre_ids": [
        12,
        27,
        53
      ],
      "title": "47 Meters Down: Uncaged",
      "vote_average": 4.7,
      "overview": "A group of backpackers diving in a ruined underwater city discover that they have stumbled into the territory of the ocean's deadliest shark species.",
      "release_date": "2019-08-15"
    },
    {
      "popularity": 44.651,
      "vote_count": 141,
      "video": false,
      "poster_path": "/kDEjffiKgjuGo2DRzsqfjvW0CQh.jpg",
      "id": 549053,
      "adult": false,
      "backdrop_path": "/eZ9wYTk9Gy2zYEv8rhRG3IoPuXG.jpg",
      "original_language": "en",
      "original_title": "Last Christmas",
      "genre_ids": [
        35,
        18,
        10749
      ],
      "title": "Last Christmas",
      "vote_average": 7.1,
      "overview": "Kate is a young woman subscribed to bad decisions. Her last date with disaster? That of having accepted to work as Santa's elf for a department store. However, she meets Tom there. Her life takes a new turn. For Kate, it seems too good to be true.",
      "release_date": "2019-11-07"
    },
    {
      "popularity": 24.742,
      "vote_count": 4,
      "video": false,
      "poster_path": "/zFYYFEhKS6JZvNW7gXeKeqnbcS7.jpg",
      "id": 537788,
      "adult": false,
      "backdrop_path": "/h23C8CiKyUtnSrlHDiT5eVCI3rY.jpg",
      "original_language": "en",
      "original_title": "Daniel Isn't Real",
      "genre_ids": [
        53
      ],
      "title": "Daniel Isn't Real",
      "vote_average": 6.5,
      "overview": "A troubled college freshman, Luke, suffers a violent family trauma and resurrects his childhood imaginary friend Daniel to help him cope.",
      "release_date": "2019-12-06"
    },
    {
      "popularity": 37.767,
      "vote_count": 96,
      "video": false,
      "poster_path": "/sG5NI6TMNR9ftOdTIXmG0hrBYSY.jpg",
      "id": 524348,
      "adult": false,
      "backdrop_path": "/yRNrOJyyeHJjgtJNLcqpo7rQyS6.jpg",
      "original_language": "en",
      "original_title": "The Report",
      "genre_ids": [
        18,
        53
      ],
      "title": "The Report",
      "vote_average": 7,
      "overview": "The story of Daniel Jones, lead investigator for the US Senate’s sweeping study into the CIA's Detention and Interrogation Program, which was found to be brutal, immoral and ineffective. With the truth at stake, Jones battled tirelessly to make public what many in power sought to keep hidden.",
      "release_date": "2019-09-12"
    },
    {
      "popularity": 90.587,
      "vote_count": 560,
      "video": false,
      "poster_path": "/p69QzIBbN06aTYqRRiCOY1emNBh.jpg",
      "id": 501170,
      "adult": false,
      "backdrop_path": "/1nm0sk8UUx9jHCTHuMKe2jkt4Pn.jpg",
      "original_language": "en",
      "original_title": "Doctor Sleep",
      "genre_ids": [
        27
      ],
      "title": "Doctor Sleep",
      "vote_average": 7.1,
      "overview": "A traumatized, alcoholic Dan Torrance meets Abra, a kid who also has the ability to \"shine.\" He tries to protect her from the True Knot, a cult whose goal is to feed off of people like them in order to remain immortal.",
      "release_date": "2019-10-30"
    },
    {
      "popularity": 33.918,
      "vote_count": 184,
      "video": false,
      "poster_path": "/r5WnfZPYAVhBA9FuZGn6THWaGHD.jpg",
      "id": 458897,
      "adult": false,
      "backdrop_path": "/a0xTB1vBxMGt6LGG4N7k1wO9lfL.jpg",
      "original_language": "en",
      "original_title": "Charlie's Angels",
      "genre_ids": [
        28,
        12,
        35
      ],
      "title": "Charlie's Angels",
      "vote_average": 6.2,
      "overview": "When a systems engineer blows the whistle on a dangerous technology, Charlie's Angels from across the globe are called into action, putting their lives on the line to protect society.",
      "release_date": "2019-11-14"
    },
    {
      "popularity": 48.117,
      "vote_count": 477,
      "video": false,
      "poster_path": "/q125RHUDgR4gjwh1QkfYuJLYkL.jpg",
      "id": 508965,
      "adult": false,
      "backdrop_path": "/mlxKite1x1PgmIhJgAxNS9eHmH8.jpg",
      "original_language": "en",
      "original_title": "Klaus",
      "genre_ids": [
        12,
        16,
        35,
        10751
      ],
      "title": "Klaus",
      "vote_average": 8.3,
      "overview": "When Jesper distinguishes himself as the Postal Academy's worst student, he is sent to Smeerensburg, a small village located on a icy island above the Arctic Circle, where grumpy inhabitants barely exchange words, let alone letters. Jesper is about to give up and abandon his duty as a postman when he meets local teacher Alva and Klaus, a mysterious carpenter who lives alone in a cabin full of handmade toys.",
      "release_date": "2019-11-08"
    },
    {
      "popularity": 45.754,
      "vote_count": 286,
      "video": false,
      "poster_path": "/uPGq1mkEXznUpapDmOSxbsybjfp.jpg",
      "id": 475303,
      "adult": false,
      "backdrop_path": "/zHuAx63Rlfz82bCexEHsX17ldcm.jpg",
      "original_language": "en",
      "original_title": "A Rainy Day in New York",
      "genre_ids": [
        35,
        10749
      ],
      "title": "A Rainy Day in New York",
      "vote_average": 6.9,
      "overview": "Two young people arrive in New York to spend a weekend, but once they arrive they're met with bad weather and a series of adventures.",
      "release_date": "2019-07-26"
    },
    {
      "popularity": 34.448,
      "vote_count": 45,
      "video": false,
      "poster_path": "/kc2cvuqESIiRX5QoZOoMTBq18kQ.jpg",
      "id": 539892,
      "adult": false,
      "backdrop_path": "/mPeyCA2625dLDbPSDjfxpNKL8Uv.jpg",
      "original_language": "en",
      "original_title": "Freaks",
      "genre_ids": [
        18,
        878,
        53
      ],
      "title": "Freaks",
      "vote_average": 6.7,
      "overview": "Kept locked inside the house by her father, 7-year-old Chloe lives in fear and fascination of the outside world, where Abnormals create a constant threat - or so she believes. When a mysterious stranger offers her a glimpse of what's really happening outside, Chloe soon finds that while the truth isn't so simple, the danger is very real.",
      "release_date": "2019-08-09"
    },
    {
      "popularity": 36.034,
      "vote_count": 1,
      "video": false,
      "poster_path": "/8eZjVbENNMZjqkmBWOTSLU8v7td.jpg",
      "id": 650272,
      "adult": false,
      "backdrop_path": "/2wKZFHmmKiTuCdlIidfKTOjKQuE.jpg",
      "original_language": "en",
      "original_title": "Beyond the Law",
      "genre_ids": [
        28,
        12,
        9648
      ],
      "title": "Beyond the Law",
      "vote_average": 10,
      "overview": "When a former detective learns of the murder of his estranged son, he ventures back to the darkened streets he once knew so well. Armed, dangerous and with nothing to lose, he must take on the ruthless local mob in his mission for revenge.",
      "release_date": "2019-12-06"
    },
    {
      "popularity": 33.711,
      "vote_count": 145,
      "video": false,
      "poster_path": "/hj8pyoNnynGeJTAbl7jcLZO8Uhx.jpg",
      "id": 522162,
      "adult": false,
      "backdrop_path": "/1ZSjrBUHP2jm1QlQEyLGufL289q.jpg",
      "original_language": "en",
      "original_title": "Midway",
      "genre_ids": [
        28,
        18,
        36,
        10752
      ],
      "title": "Midway",
      "vote_average": 6.6,
      "overview": "The story of the soldiers and aviators who helped turn the tide of the Second World War during the iconic Battle of Midway in June 1942.",
      "release_date": "2019-11-06"
    },
    {
      "popularity": 22.355,
      "vote_count": 1,
      "video": false,
      "poster_path": "/z59Vr7l2ZFQPh76ooSQdXjW3YRo.jpg",
      "id": 577332,
      "adult": false,
      "backdrop_path": "/jAubfxS4QpGI9nfNHckxa4Faitu.jpg",
      "original_language": "hi",
      "original_title": "Pपानीपट",
      "genre_ids": [
        28,
        18,
        36,
        10752
      ],
      "title": "Panipat",
      "vote_average": 4,
      "overview": "During 18th century India, the Marathas emerged as the most powerful empire in the nation until the Afghan King Ahmad Shah Abdali plans to take over India. Sadashiv Rao Bhau is brought in to save the empire from the king which then leads to the third battle of Panipat.",
      "release_date": "2019-12-05"
    },
    {
      "popularity": 40.438,
      "vote_count": 17,
      "video": false,
      "poster_path": "/aB1rCWGMsM2mm1kBDleaPkqUCFo.jpg",
      "id": 508664,
      "adult": false,
      "backdrop_path": "/zA6uqJdLMfqg0srHccAK8aLTHJE.jpg",
      "original_language": "en",
      "original_title": "Danger Close: The Battle of Long Tan",
      "genre_ids": [
        28,
        18,
        36,
        10752
      ],
      "title": "Danger Close: The Battle of Long Tan",
      "vote_average": 6.4,
      "overview": "For three and a half hours, in the pouring rain, amid the mud and shattered trees of a rubber plantation called Long Tan, Major Harry Smith and his dispersed company of 108 young and mostly inexperienced Australian and New Zealand soldiers are fighting for their lives, holding off an overwhelming enemy force of 2,500 battle-hardened Viet Cong and North Vietnamese soldiers. With their ammunition running out, their casualties mounting and the enemy massing for a final assault, each man begins to search for the strength to triumph over an uncertain future with honour, decency and courage.",
      "release_date": "2019-08-08"
    },
    {
      "popularity": 29.504,
      "vote_count": 87,
      "video": false,
      "poster_path": "/qCDPKUMX5xrxxQY8XhGVCKO3fks.jpg",
      "id": 599975,
      "adult": false,
      "backdrop_path": "/zETkzgle7c6wAeW11snnVUBp67S.jpg",
      "original_language": "en",
      "original_title": "Countdown",
      "genre_ids": [
        27,
        53
      ],
      "title": "Countdown",
      "vote_average": 6.9,
      "overview": "A young nurse downloads an app that tells her she only has three days to live. With time ticking away and a mysterious figure haunting her, she must find a way to save her life before time runs out.",
      "release_date": "2019-10-24"
    },
    {
      "popularity": 53.055,
      "vote_count": 28,
      "video": false,
      "poster_path": "/srGf2aT8ASQLlkNJOzVHXdOSJdC.jpg",
      "id": 599845,
      "adult": false,
      "backdrop_path": "/zINpcwnTZMnsMJv51p23jUxmpZZ.jpg",
      "original_language": "it",
      "original_title": "L'immortale",
      "genre_ids": [
        28,
        80
      ],
      "title": "The Immortal",
      "vote_average": 7.4,
      "overview": "Ciro's body is sinking in the dark waters of the Gulf of Naples. And as it sinks deeper and deeper, memories emerge. The sounds muffled by the water merge with the screams of fleeing people. It is 1980, the earth shakes, the palace collapses, but under the rubble you can hear the cry of a newborn baby still alive. Ten years later, we find that new-born baby as it survives as it can on the streets of Naples, nobody's son. Vivid memories of a criminal education that made him what he is: Ciro Di Marzio, the Immortal. Prequel of the \"Gomorra\" tv show.",
      "release_date": "2019-12-05"
    },
    {
      "popularity": 26.147,
      "vote_count": 40,
      "video": false,
      "poster_path": "/bSN9SysoRBMwJKNkfOlQlCw2YQO.jpg",
      "id": 535292,
      "adult": false,
      "backdrop_path": "/blUCzzkFNWrur18J0BvIYBdbquv.jpg",
      "original_language": "en",
      "original_title": "21 Bridges",
      "genre_ids": [
        28,
        80,
        18,
        53
      ],
      "title": "21 Bridges",
      "vote_average": 6.3,
      "overview": "A disgraced NYPD detective after being thrust into a citywide manhunt for a cop killer, is given a shot at redemption.",
      "release_date": "2019-10-24"
    },
    {
      "popularity": 29.581,
      "vote_count": 565,
      "video": false,
      "poster_path": "/pIcV8XXIIvJCbtPoxF9qHMKdRr2.jpg",
      "id": 338967,
      "adult": false,
      "backdrop_path": "/jCCdt0e8Xe9ttvevD4S3TSMNdH.jpg",
      "original_language": "en",
      "original_title": "Zombieland: Double Tap",
      "genre_ids": [
        28,
        35,
        27
      ],
      "title": "Zombieland: Double Tap",
      "vote_average": 7.2,
      "overview": "Columbus, Tallahassee, Wichita, and Little Rock move to the American heartland as they face off against evolved zombies, fellow survivors, and the growing pains of the snarky makeshift family.",
      "release_date": "2019-10-09"
    },
    {
      "popularity": 35.368,
      "vote_count": 244,
      "video": false,
      "poster_path": "/uaXNjRkDdjfxfVuKHo25wkA6CiA.jpg",
      "id": 481084,
      "adult": false,
      "backdrop_path": "/ur4NTeFGZmQ6Hz5uEkAMgPI3WRg.jpg",
      "original_language": "en",
      "original_title": "The Addams Family",
      "genre_ids": [
        16,
        35,
        14,
        10751
      ],
      "title": "The Addams Family",
      "vote_average": 6.2,
      "overview": "The Addams family's lives begin to unravel when they face-off against a treacherous, greedy crafty reality-TV host while also preparing for their extended family to arrive for a major celebration.",
      "release_date": "2019-10-10"
    },
    {
      "popularity": 9.567,
      "vote_count": 0,
      "video": false,
      "poster_path": "/7hmWmqWkyT4qZzviTJbljFqZuTd.jpg",
      "id": 588787,
      "adult": false,
      "backdrop_path": null,
      "original_language": "en",
      "original_title": "Ordinary Love",
      "genre_ids": [
        18
      ],
      "title": "Ordinary Love",
      "vote_average": 0,
      "overview": "An extraordinary look at the lives of a middle-aged couple in the midst of the wife's breast cancer diagnosis.",
      "release_date": "2019-12-06"
    }
  ],
  "page": 2,
  "total_results": 1440,
  "dates": {
    "maximum": "2019-12-08",
    "minimum": "2019-10-21"
  },
  "total_pages": 72
}